G_lr,D_lr,G_beta1,D_beta1,batch_size,pid,eta_min,eta_max,epoch,chi2
0.0004935410044291668,0.00011888886381732879,0.5761444711198845,0.99,2048,22,0.0,0.05,430000,3.085
0.000999622014211384,4.470885326992566e-05,0.8469138380349923,0.99,512,22,0.0,0.05,470000,3.091
0.0006745141209306103,0.0004713674120752539,0.9242562731163743,0.99,2048,22,0.15,0.2,220000,3.855
0.0005295108799408818,1.685365553471981e-05,0.7750726615810906,0.99,1024,22,0.2,0.25,460000,3.945
0.000650667547317698,2.327535665508438e-05,0.8149204314075638,0.99,2048,22,0.2,0.25,130000,6.31
3.502006976836932e-05,1.9409309234861893e-05,0.7767370258918382,0.55,1024,22,0.0,0.05,460000,6.324
1.4795494748769967e-05,9.262861524547981e-05,0.727067509667892,0.55,2048,22,0.0,0.05,450000,6.338
1.300381878863176e-05,0.000394114300780064,0.8202201324857948,0.55,2048,22,0.0,0.05,260000,6.362
3.533359793548857e-05,5.291024456254248e-05,0.660284436316916,0.55,128,22,0.0,0.05,460000,6.422
1e-05,1e-05,0.7746212985911732,0.55,1024,22,0.0,0.05,450000,6.759
1.1785629302583778e-05,1.2833860467472677e-05,0.7401130024268112,0.9363149704137754,512,22,0.0,0.05,410000,7.328
1e-05,1.8231076882087606e-05,0.7725504168357424,0.9586939344748934,1024,22,0.0,0.05,370000,7.357
3.27731521703147e-05,1.2575469049170895e-05,0.7983640180938177,0.6003654915242902,2048,22,0.0,0.05,430000,7.37
1.5207506746523307e-05,1.3596002336798744e-05,0.8019878260084808,0.55,512,22,0.0,0.05,480000,7.489
1e-05,0.0001769448264639875,0.6426128435918523,0.55,2048,22,0.0,0.05,450000,7.528
1.707036382612576e-05,0.00013974402677729368,0.7151705380773922,0.55,256,22,0.0,0.05,410000,7.843
2.831984461319637e-05,5.9993738095103286e-05,0.8496218200668599,0.55,256,22,0.0,0.05,490000,7.935
1e-05,1.8330673778086407e-05,0.8040213988718691,0.55,512,22,0.2,0.25,190000,7.977
1.1522990423541631e-05,1.9837874546731413e-05,0.7266809005482069,0.8305325946544031,2048,22,0.2,0.25,350000,8.068
1.5540859630609192e-05,0.00016320686844386825,0.7712310665937423,0.604363581219265,256,22,0.0,0.05,290000,8.074
1.918233781548289e-05,2.7106392641912803e-05,0.7519648710430328,0.55,256,22,0.0,0.05,300000,8.126
1.6913386239043155e-05,0.0001914010246741493,0.6961597908729077,0.9051327862910603,2048,22,0.0,0.05,200000,8.128
1.2052662455907827e-05,1e-05,0.7317504214112823,0.55,256,22,0.0,0.05,490000,8.356
1e-05,6.553478897521827e-05,0.6969568508828184,0.825287361525723,256,22,0.2,0.25,340000,8.392
1e-05,0.0008394053439297139,0.6931246757350603,0.7040729120320284,256,22,0.0,0.05,480000,8.77
1e-05,4.752024025466862e-05,0.7075950821890182,0.55,1024,22,0.2,0.25,450000,9.514
3.512903476887803e-05,6.207158690978608e-05,0.7772158071249998,0.8600785206027447,128,22,0.0,0.05,490000,9.681
1e-05,0.0001102754486495133,0.8432972453098218,0.6312514983730892,512,22,0.0,0.05,400000,9.888
1.0607774284930216e-05,4.300304652618484e-05,0.8386372279792929,0.6641440171763665,256,22,0.0,0.05,430000,10.127
1.0949416887717625e-05,0.00011288812356145349,0.9279547958215524,0.55,1024,22,0.0,0.05,350000,10.264
1.1789827364480882e-05,1.3593477957441593e-05,0.8829783335692437,0.5822589455110047,128,22,0.0,0.05,420000,10.421
1.0665375062863678e-05,4.7172957195438595e-05,0.7337635769786277,0.8768119006443869,1024,22,0.05,0.1,440000,10.57
1e-05,1.980966454473389e-05,0.7252205166697641,0.840329514976423,128,22,0.0,0.05,300000,10.952
1.0299254579682656e-05,8.613022408197032e-05,0.8543500857863472,0.55,256,22,0.2,0.25,490000,11.13
3.058461161629659e-05,0.00034518500056775496,0.778658775286268,0.5653084244469658,2048,22,0.0,0.05,260000,11.338
2.919594172559463e-05,4.986971107817538e-05,0.7967843696309106,0.5791916446800677,1024,22,0.0,0.05,150000,11.573
1.1321624948093659e-05,1.2319473760722488e-05,0.8623695747086273,0.55,128,22,0.15,0.2,290000,11.964
1e-05,9.464276546423485e-05,0.6269911243118278,0.9790852135946577,128,22,0.0,0.05,330000,12.43
3.603214112399796e-05,1e-05,0.7878736378273501,0.7891242847724713,1024,22,0.0,0.05,480000,12.82
8.262697639201321e-05,3.238157869926597e-05,0.6636014195263994,0.6700402605571039,2048,22,0.0,0.05,190000,12.909
4.676181687889234e-05,9.144342981445228e-05,0.7716336370581366,0.9076121899496878,256,22,0.0,0.05,450000,13.587
3.9683633451508965e-05,1.8211527957168532e-05,0.6939821329940112,0.55,128,22,0.15,0.2,240000,13.992
1.8184395148458985e-05,0.00028138505118338234,0.6537003167575228,0.55,128,22,0.2,0.25,170000,14.43
3.8318061950237815e-05,0.00014734180749639052,0.7277313926841845,0.703544108459252,128,22,0.05,0.1,390000,14.929
1.1812104520054077e-05,0.0007195276356573156,0.8653754500545028,0.5550895814783523,256,22,0.0,0.05,210000,15.051
1.0610986871432604e-05,0.00011786343248168818,0.8553670990792039,0.8850368646419889,128,22,0.15,0.2,410000,15.076
1.181332062722785e-05,0.00021878349616765555,0.8010285195322806,0.8845475650064418,256,22,0.05,0.1,370000,15.435
1e-05,8.57570510883373e-05,0.8358702879422439,0.7837809909000155,256,22,0.15,0.2,310000,15.793
2.863299492686177e-05,9.344280114799218e-05,0.8157210201868522,0.5764359151650832,512,22,0.15,0.2,420000,18.301
1.879031849314367e-05,0.00012648969068173723,0.7700280895685349,0.6615598395357127,256,22,0.15,0.2,350000,18.373
1.0084682461257652e-05,0.0005737666272475156,0.8254110877901277,0.99,1024,22,0.0,0.05,100000,19.112
1.792224456786597e-05,6.781313926221149e-05,0.843809257511354,0.55,512,22,0.2,0.25,480000,19.295
0.0009127096232752008,2.922019553657711e-05,0.7370902412650437,0.99,2048,22,0.0,0.05,380000,19.615
7.239125629750819e-05,1.6105106927992013e-05,0.7450275443329046,0.8548089184200206,1024,22,0.0,0.05,150000,19.993
1e-05,0.00023969688043825747,0.8441247828819088,0.55,1024,22,0.15,0.2,340000,20.468
3.5756582325649176e-05,1.9261871512186898e-05,0.7466122532343561,0.8313001930221706,2048,22,0.15,0.2,310000,21.029
2.76238395204768e-05,1.4104091934351034e-05,0.8165754569038243,0.7209408447630764,512,22,0.05,0.1,350000,21.643
0.00010416780781516237,1.4767746038820575e-05,0.7485955449218143,0.5974424288037651,512,22,0.0,0.05,180000,21.874
1.816874163554374e-05,1.9406066452014976e-05,0.8274090235823476,0.8992879729197377,512,22,0.15,0.2,420000,22.486
0.00030602703229912724,1.462616931683923e-05,0.8013661345992202,0.99,1024,22,0.0,0.05,420000,24.626
2.750154788188001e-05,2.560605769158959e-05,0.840629184180911,0.55,2048,22,0.2,0.25,480000,25.439
1.909039471230139e-05,1e-05,0.9755787583675773,0.55,2048,22,0.0,0.05,460000,26.435
1.7764473471526686e-05,0.00011467498720606365,0.8531213680099173,0.99,2048,22,0.0,0.05,130000,27.027
1.696989733370571e-05,2.6467090604591395e-05,0.8310606258606257,0.55,2048,22,0.2,0.25,240000,27.288
0.00047111027597573473,0.0001285922642826041,0.7559235894100075,0.99,512,22,0.0,0.05,140000,30.883
6.121949882546937e-05,0.0002931042058996781,0.7684849171274334,0.8545267886476269,512,22,0.05,0.1,240000,31.202
1e-05,1e-05,0.8896741229416013,0.9586272029384302,512,22,0.15,0.2,420000,32.358
1.8091767539160206e-05,1.0890876634631184e-05,0.74297921474744,0.9797353253867642,2048,22,0.0,0.05,450000,32.639
5.885588712418892e-05,1e-05,0.7598746223508099,0.8023804837568682,2048,22,0.2,0.25,250000,33.379
2.6953366974972892e-05,3.065385728512961e-05,0.9016263294916665,0.55,512,22,0.05,0.1,470000,34.199
0.00010063823314174288,0.0001078520885468204,0.6601024243187177,0.55,256,22,0.0,0.05,350000,35.454
4.051891317465438e-05,0.0003091359636958254,0.7923980882664422,0.8748804012074423,2048,22,0.2,0.25,150000,36.63
0.0002473643820014655,1e-05,0.8044219735733801,0.55,1024,22,0.0,0.05,440000,37.869
0.0003392291325922363,1.0297072445751698e-05,0.8667498604491282,0.99,256,22,0.0,0.05,110000,39.303
5.027323643282221e-05,0.0006731135815375965,0.7511043859015706,0.6385334605136493,2048,22,0.05,0.1,240000,40.046
1.4357027637994308e-05,1.7633004049701247e-05,0.8401617589054692,0.99,512,22,0.0,0.05,110000,42.393
0.0001059317446608089,0.0006073128519051488,0.7540494211575495,0.55,1024,22,0.15,0.2,200000,43.435
1e-05,2.7544690741252203e-05,0.8404444378819251,0.5569417046006735,256,22,0.15,0.2,150000,43.626
2.0004979394122243e-05,0.00010738514991348109,0.8127173684664076,0.99,128,22,0.0,0.05,120000,43.917
0.00022526017272189692,0.00014978481675042787,0.7073070062034831,0.8247202731525434,512,22,0.0,0.05,390000,44.255
1e-05,4.238061636866834e-05,0.8571437230041005,0.9817404747696729,512,22,0.05,0.1,120000,44.64
9.159412587593185e-05,2.038485954262992e-05,0.7616571615924468,0.55,512,22,0.2,0.25,110000,47.594
0.00018171129824498354,2.1549350863330184e-05,0.8212363181012804,0.55,2048,22,0.0,0.05,380000,47.978
0.00011871171003352707,5.439655802076308e-05,0.7731355850149108,0.55,2048,22,0.0,0.05,330000,48.146
1.0141591486613391e-05,1.3953684955905522e-05,0.7389615517351927,0.99,1024,22,0.0,0.05,150000,48.195
0.0005889957674283557,0.00010620436946238536,0.834098163801832,0.99,128,22,0.15,0.2,320000,49.047
8.993901683136874e-05,1.7850749824811955e-05,0.7312609586907111,0.99,512,22,0.0,0.05,240000,49.192
5.0989409632044535e-05,0.00020189827758146134,0.8119974904676873,0.55,1024,22,0.0,0.05,280000,50.065
0.00015210577449339046,1.369211157877447e-05,0.8574567214259222,0.7906840805322712,2048,22,0.0,0.05,370000,50.114
2.5947885447508806e-05,0.0002269743963571579,0.9848255404264733,0.55,2048,22,0.0,0.05,420000,50.849
3.1477809146310796e-05,7.532418861947087e-05,0.7983717609553083,0.55,2048,22,0.15,0.2,490000,52.446
1e-05,1.3038923728861647e-05,0.6908296628481484,0.99,1024,22,0.0,0.05,170000,53.439
2.4456901437641503e-05,1.437590738511687e-05,0.8029573066007083,0.99,256,22,0.0,0.05,110000,54.079
0.00022175853121470852,7.596859216684329e-05,0.7601166015154754,0.55,512,22,0.0,0.05,110000,54.876
1.711793105589568e-05,1.1983813736333696e-05,0.7827599106041535,0.99,512,22,0.0,0.05,120000,55.572
0.00019974217229492988,1e-05,0.660954491203613,0.9588145918080756,256,22,0.0,0.05,190000,55.878
4.77963603013064e-05,0.0008429467533482266,0.7270047111331714,0.55,512,22,0.2,0.25,430000,56.019
7.371660849729759e-05,4.5050969634812516e-05,0.8409902692218838,0.55,256,22,0.2,0.25,190000,56.565
0.0007761185643785011,1.1066094002719066e-05,0.6086706986790098,0.6771441292962872,2048,22,0.2,0.25,360000,57.458
0.0003044426347710033,1e-05,0.8270907077225594,0.8372135955679272,512,22,0.0,0.05,470000,58.15
3.154299771036424e-05,1.4078504508977563e-05,0.71221493767238,0.9610522102721348,256,22,0.15,0.2,370000,58.262
7.524629582275379e-05,0.0004365522868790409,0.6927949323882212,0.605516083230641,1024,22,0.15,0.2,310000,58.738
4.004765100427146e-05,0.0004295037788188614,0.8743368092662424,0.6233851257965373,2048,22,0.05,0.1,150000,59.114
2.860762405622047e-05,0.0008355069898767556,0.715176372204046,0.55,512,22,0.0,0.05,100000,59.681
0.0004147551370339156,7.392296172820491e-05,0.8019431800127306,0.99,512,22,0.0,0.05,200000,60.506
0.0001236908933487686,0.00016845757433586161,0.7646838130106973,0.55,256,22,0.15,0.2,420000,61.397
0.00012067588887250489,4.7996154042581356e-05,0.7182469918483819,0.8713553962898253,2048,22,0.15,0.2,210000,61.913
8.568058331577088e-05,8.126905842581762e-05,0.691857975450372,0.55,256,22,0.05,0.1,190000,62.693
4.063564767013679e-05,3.4331687098389104e-05,0.9251424317596033,0.9624188539843377,128,22,0.15,0.2,360000,63.143
0.00011585318902227815,0.0006586240996348132,0.8189614426696624,0.55,1024,22,0.0,0.05,140000,63.49
0.00011158458648964494,0.00021746007298807088,0.7000714421973919,0.55,1024,22,0.0,0.05,220000,63.716
0.0007215467519044655,1.730681605761266e-05,0.7912849817363674,0.7516568993527479,1024,22,0.0,0.05,270000,64.571
0.00017991224751703221,0.00020860174316954667,0.7938164689112663,0.55,1024,22,0.0,0.05,250000,66.225
3.367657721158322e-05,0.00018531695511841623,0.7773278620604629,0.55,1024,22,0.2,0.25,150000,66.597
3.56436207601462e-05,0.00028302429996918664,0.7222732850537286,0.99,2048,22,0.0,0.05,100000,66.686
0.0001560845812389681,3.6984822438282974e-05,0.8981191777353261,0.55,1024,22,0.0,0.05,440000,68.158
0.00012594196866326927,3.5082005028918465e-05,0.7694522363485526,0.6140594055844677,512,22,0.15,0.2,120000,69.027
0.0006299240054757813,1.5109390587100163e-05,0.8120652354942638,0.7132332400889423,512,22,0.0,0.05,200000,69.279
0.00010739103155241322,3.090798114013975e-05,0.813567225219169,0.55,2048,22,0.05,0.1,470000,69.664
1e-05,2.6702728087682426e-05,0.8251218982259483,0.99,128,22,0.15,0.2,100000,70.083
1.987397166946461e-05,1.8027603536445137e-05,0.7372478682654854,0.99,256,22,0.0,0.05,130000,70.613
0.00027869054835525216,5.351510630408974e-05,0.6736413874704656,0.55,512,22,0.2,0.25,430000,70.818
5.643406855061999e-05,0.0002339884001323854,0.6679393722058141,0.5988968558472706,1024,22,0.2,0.25,240000,70.92
0.00014458139926003082,1.0779030448260725e-05,0.8677338575923331,0.55,512,22,0.2,0.25,350000,72.089
0.0009883936834342575,0.0003086273943384346,0.6283213809584425,0.6681797448811884,1024,22,0.0,0.05,350000,74.951
0.00011510185606166366,9.227088511049867e-05,0.7137785962690675,0.9236231468088478,1024,22,0.2,0.25,160000,75.011
0.000477398630875426,1.4138491570765115e-05,0.7502982799946457,0.6926390229591526,1024,22,0.15,0.2,490000,78.377
0.00021001490782725286,1.633905295608529e-05,0.8285633689268492,0.55,2048,22,0.2,0.25,110000,79.586
1e-05,4.08856199406979e-05,0.7921626929126075,0.99,256,22,0.15,0.2,310000,79.744
0.0003868313331330194,5.2801289736117786e-05,0.7632599048076235,0.55,1024,22,0.05,0.1,190000,82.637
0.00039024156983026733,4.982723527529922e-05,0.7806149307728537,0.8393210749592699,512,22,0.0,0.05,420000,83.943
4.2841904285220915e-05,0.0001653153404223718,0.7713155972018771,0.99,512,22,0.0,0.05,120000,84.382
0.0005984849532680905,0.00010280942739503989,0.8240348212678638,0.9695188830753572,2048,22,0.2,0.25,180000,87.817
1e-05,0.00032632140297723266,0.8016864011214614,0.99,2048,22,0.2,0.25,120000,92.562
0.0002077694129650685,0.00027027514791181224,0.725519928045192,0.55,1024,22,0.2,0.25,310000,96.94
0.00010254932278643084,1.385623679603477e-05,0.8604380640086959,0.99,128,22,0.0,0.05,100000,97.285
1e-05,1.4445455932711292e-05,0.664081193727039,0.99,256,22,0.2,0.25,400000,98.136
0.0003930744844786737,0.0003885976571402111,0.7233004326305965,0.6524433995766024,2048,22,0.0,0.05,310000,98.902
1.0130508520824783e-05,0.0006054190474396394,0.8328531844342568,0.99,1024,22,0.2,0.25,170000,99.671
0.0008419506646154882,0.0007261987720793056,0.78401181945358,0.9456284082263485,512,22,0.05,0.1,270000,103.293
0.00035502984777114515,0.00015886568444123506,0.7138757056959034,0.55,256,22,0.05,0.1,430000,105.024
2.5785244469805563e-05,1e-05,0.8265209584504342,0.99,256,22,0.15,0.2,450000,106.981
0.000488802785858547,0.0001006399740947052,0.7736879709441289,0.5976838518909963,2048,22,0.15,0.2,330000,107.867
0.00019758985827106568,0.00017375265455811233,0.8426517977494495,0.656749876410573,128,22,0.2,0.25,300000,108.369
1e-05,1.591109106084125e-05,0.6998783418053017,0.99,256,22,0.05,0.1,210000,109.025
0.000569883736262147,0.0006409632880038671,0.7406996410198827,0.9005039276404885,512,22,0.15,0.2,110000,112.27
0.0005505641255390726,1.7261135255059068e-05,0.8299384192729278,0.55,256,22,0.2,0.25,480000,113.55
8.718300414329367e-05,3.0290102056569633e-05,0.8802555318336217,0.99,256,22,0.15,0.2,440000,123.716
0.0007760882419060673,0.00046458719170513677,0.8361918010054715,0.55,256,22,0.15,0.2,390000,132.662
6.462296519446857e-05,0.0007122175800413444,0.6683020210622089,0.99,256,22,0.0,0.05,100000,137.014
0.0008489817553807334,0.00034509100028274763,0.844632366975182,0.55,128,22,0.15,0.2,370000,137.317
0.0008250756157262412,0.00017845948180778977,0.8245712804419125,0.5824615217368547,128,22,0.15,0.2,420000,138.496
4.2497774589677166e-05,0.00017482393409731925,0.6667554552197134,0.99,128,22,0.05,0.1,240000,141.393
0.0005298441813380323,0.00048803252886137375,0.7063222975102214,0.7741474957475444,2048,22,0.2,0.25,180000,145.567
0.0004057512567647642,0.00011300342163566345,0.6666182482317189,0.99,1024,22,0.0,0.05,120000,150.16
0.0007318949493906918,6.455117423285401e-05,0.8092841012760471,0.6421955439398688,128,22,0.0,0.05,300000,157.695
0.0005256732184371242,0.00028043195230876964,0.8766683782253478,0.55,2048,22,0.2,0.25,110000,165.96
0.00040454961483498753,0.0006006631370035034,0.7783326865211762,0.99,2048,22,0.0,0.05,110000,184.293
0.000513090144613387,0.0005703050283933433,0.8046250165983209,0.99,2048,22,0.0,0.05,130000,236.504
0.0004770878417099661,0.0007098852217120641,0.8919315873587943,0.99,256,22,0.0,0.05,100000,267.73
